8/1/2016 12:05:12 PM:===============BEGIN CHECKING SDC ID=================
8/1/2016 12:05:12 PM:COMMAND STRING:01 24 20 E5 05 30 31 32 3E 03
8/1/2016 12:05:12 PM:RESPONSE STATUS : ERROR
8/1/2016 12:05:12 PM:RESPONSE  : The port 'COM6' does not exist.
8/1/2016 12:05:12 PM:STATUS : ERROR
8/1/2016 12:05:12 PM:RESPONSE : The port 'COM6' does not exist.
8/1/2016 12:05:12 PM:===============END CHECKING SDC ID =================
8/1/2016 12:05:12 PM:===============BEGIN SENDING RECEIPT DATA=================
8/1/2016 12:05:12 PM:DATA : NS123456789,100600570,31/05/2016 09:21:27,8,0.00,18.00,0.00,0.00,0.00,0,0.00,0.00,0.00,0.00,0.00,0.00
8/1/2016 12:05:12 PM:COMMAND STRING:01 89 23 C6 4E 53 31 32 33 34 35 36 37 38 39 2C 31 30 30 36 30 30 35 37 30 2C 33 31 2F 30 35 2F 32 30 31 36 20 30 39 3A 32 31 3A 32 37 2C 38 2C 30 2E 30 30 2C 31 38 2E 30 30 2C 30 2E 30 30 2C 30 2E 30 30 2C 30 2E 30 30 2C 30 2C 30 2E 30 30 2C 30 2E 30 30 2C 30 2E 30 30 2C 30 2E 30 30 2C 30 2E 30 30 2C 30 2E 30 30 05 31 34 3D 30 03
8/1/2016 12:05:13 PM:RESPONSE STATUS : ERROR
8/1/2016 12:05:13 PM:RESPONSE  : The port 'COM6' does not exist.
8/1/2016 12:05:13 PM:STATUS : ERROR
8/1/2016 12:05:13 PM:RESPONSE : The port 'COM6' does not exist.
8/1/2016 12:05:13 PM:===============END SENDING RECEIPT DATA=================
8/1/2016 12:06:25 PM:===============BEGIN CHECKING SDC ID=================
8/1/2016 12:06:30 PM:COMMAND STRING:01 24 20 E5 05 30 31 32 3E 03
8/1/2016 12:06:47 PM:RESPONSE STATUS : ERROR
8/1/2016 12:15:48 PM:===============BEGIN CHECKING SDC ID=================
8/1/2016 12:15:48 PM:COMMAND STRING:01 24 20 E5 05 30 31 32 3E 03
8/1/2016 12:15:48 PM:RESPONSE STATUS : ERROR
8/1/2016 12:15:48 PM:RESPONSE  : Unable to detect SDC on the provided PORT, Please check if SDC is connected.(The port 'COM6' does not exist.)
8/1/2016 12:15:48 PM:STATUS : ERROR
8/1/2016 12:15:48 PM:RESPONSE : Unable to detect SDC on the provided PORT, Please check if SDC is connected.(The port 'COM6' does not exist.)
8/1/2016 12:15:48 PM:===============END CHECKING SDC ID =================
8/1/2016 12:15:49 PM:===============BEGIN SENDING RECEIPT DATA=================
8/1/2016 12:15:49 PM:DATA : NS123456789,100600570,31/05/2016 09:21:27,8,0.00,18.00,0.00,0.00,0.00,0,0.00,0.00,0.00,0.00,0.00,0.00
8/1/2016 12:15:49 PM:COMMAND STRING:01 89 23 C6 4E 53 31 32 33 34 35 36 37 38 39 2C 31 30 30 36 30 30 35 37 30 2C 33 31 2F 30 35 2F 32 30 31 36 20 30 39 3A 32 31 3A 32 37 2C 38 2C 30 2E 30 30 2C 31 38 2E 30 30 2C 30 2E 30 30 2C 30 2E 30 30 2C 30 2E 30 30 2C 30 2C 30 2E 30 30 2C 30 2E 30 30 2C 30 2E 30 30 2C 30 2E 30 30 2C 30 2E 30 30 2C 30 2E 30 30 05 31 34 3D 30 03
8/1/2016 12:15:49 PM:RESPONSE STATUS : ERROR
8/1/2016 12:15:49 PM:RESPONSE  : Unable to detect SDC on the provided PORT, Please check if SDC is connected.(The port 'COM6' does not exist.)
8/1/2016 12:15:49 PM:STATUS : ERROR
8/1/2016 12:15:49 PM:RESPONSE : Unable to detect SDC on the provided PORT, Please check if SDC is connected.(The port 'COM6' does not exist.)
8/1/2016 12:15:49 PM:===============END SENDING RECEIPT DATA=================
8/1/2016 12:17:32 PM:===============BEGIN CHECKING SDC ID=================
8/1/2016 12:17:32 PM:COMMAND STRING:01 24 20 E5 05 30 31 32 3E 03
8/1/2016 12:17:32 PM:RESPONSE STATUS : ERROR
8/1/2016 12:17:32 PM:RESPONSE  : Unable to detect SDC on the provided PORT, Please check if SDC is connected.(The port 'COM6' does not exist.)
8/1/2016 12:17:32 PM:STATUS : ERROR
8/1/2016 12:17:32 PM:RESPONSE : Unable to detect SDC on the provided PORT, Please check if SDC is connected.(The port 'COM6' does not exist.)
8/1/2016 12:17:32 PM:===============END CHECKING SDC ID =================
8/1/2016 12:17:35 PM:===============BEGIN SENDING RECEIPT DATA=================
8/1/2016 12:17:35 PM:DATA : NR123456789,100600570,31/05/2016 09:21:27,5REFUND,0.00,18.00,0.00,0.00,0.00,42372.88,0.00,0.00,0.00,7627.14,0.00,0.00
8/1/2016 12:17:35 PM:COMMAND STRING:01 99 23 C6 4E 52 31 32 33 34 35 36 37 38 39 2C 31 30 30 36 30 30 35 37 30 2C 33 31 2F 30 35 2F 32 30 31 36 20 30 39 3A 32 31 3A 32 37 2C 35 52 45 46 55 4E 44 2C 30 2E 30 30 2C 31 38 2E 30 30 2C 30 2E 30 30 2C 30 2E 30 30 2C 30 2E 30 30 2C 34 32 33 37 32 2E 38 38 2C 30 2E 30 30 2C 30 2E 30 30 2C 30 2E 30 30 2C 37 36 32 37 2E 31 34 2C 30 2E 30 30 2C 30 2E 30 30 05 31 38 3B 3B 03
8/1/2016 12:17:35 PM:RESPONSE STATUS : ERROR
8/1/2016 12:17:35 PM:RESPONSE  : Unable to detect SDC on the provided PORT, Please check if SDC is connected.(The port 'COM6' does not exist.)
8/1/2016 12:17:35 PM:STATUS : ERROR
8/1/2016 12:17:35 PM:RESPONSE : Unable to detect SDC on the provided PORT, Please check if SDC is connected.(The port 'COM6' does not exist.)
8/1/2016 12:17:35 PM:===============END SENDING RECEIPT DATA=================
8/1/2016 12:21:51 PM:===============BEGIN CHECKING SDC ID=================
8/1/2016 12:21:51 PM:COMMAND STRING:01 24 20 E5 05 30 31 32 3E 03
8/1/2016 12:21:51 PM:RESPONSE STATUS : ERROR
8/1/2016 12:21:51 PM:RESPONSE  : Unable to detect SDC on the provided PORT, Please check if SDC is connected.(The port 'COM6' does not exist.)
8/1/2016 12:21:51 PM:STATUS : ERROR
8/1/2016 12:21:51 PM:RESPONSE : Unable to detect SDC on the provided PORT, Please check if SDC is connected.(The port 'COM6' does not exist.)
8/1/2016 12:21:51 PM:===============END CHECKING SDC ID =================
8/1/2016 12:21:52 PM:===============BEGIN SENDING RECEIPT DATA=================
8/1/2016 12:21:52 PM:DATA : NR123456789,100600570,31/05/2016 09:21:27,2REFUND,0.00,18.00,0.00,0.00,0.00,0,0.00,0.00,0.00,0.00,0.00,0.00
8/1/2016 12:21:52 PM:COMMAND STRING:01 8F 23 C6 4E 52 31 32 33 34 35 36 37 38 39 2C 31 30 30 36 30 30 35 37 30 2C 33 31 2F 30 35 2F 32 30 31 36 20 30 39 3A 32 31 3A 32 37 2C 32 52 45 46 55 4E 44 2C 30 2E 30 30 2C 31 38 2E 30 30 2C 30 2E 30 30 2C 30 2E 30 30 2C 30 2E 30 30 2C 30 2C 30 2E 30 30 2C 30 2E 30 30 2C 30 2E 30 30 2C 30 2E 30 30 2C 30 2E 30 30 2C 30 2E 30 30 05 31 36 39 33 03
8/1/2016 12:21:52 PM:RESPONSE STATUS : ERROR
8/1/2016 12:21:52 PM:RESPONSE  : Unable to detect SDC on the provided PORT, Please check if SDC is connected.(The port 'COM6' does not exist.)
8/1/2016 12:21:52 PM:STATUS : ERROR
8/1/2016 12:21:52 PM:RESPONSE : Unable to detect SDC on the provided PORT, Please check if SDC is connected.(The port 'COM6' does not exist.)
8/1/2016 12:21:52 PM:===============END SENDING RECEIPT DATA=================
